Machine Learning Model fitting
…
## # A tibble: 1 x 5
##   term        estimate std.error statistic p.value
##   <chr>          <dbl>     <dbl>     <dbl>   <dbl>
## 1 (Intercept)     98.9    0.0537     1842.       0

### Null model Evaluation
# we will use the RMSE as a metric to assess model performance

# Use a trained workflow to predict section using test data 
predict(null_fit, test_data)

## # A tibble: 222 x 1
##    .pred
##    <dbl>
##  1  98.9
##  2  98.9
##  3  98.9
##  4  98.9
##  5  98.9
##  6  98.9
##  7  98.9
##  8  98.9
##  9  98.9
## 10  98.9
## # ... with 212 more rows

# include predicted probabilities
null_test_aug <- augment(null_fit, test_data)

# estimate RMSE for test data
rmse_null_test <- null_test_aug %>% 
  rmse(truth = BodyTemp, .pred)

# evaluate prediction in train data
predict(null_fit, train_data)

## # A tibble: 508 x 1
##    .pred
##    <dbl>
##  1  98.9
##  2  98.9
##  3  98.9
##  4  98.9
##  5  98.9
##  6  98.9
##  7  98.9
##  8  98.9
##  9  98.9
## 10  98.9
## # ... with 498 more rows
…
